G04 #@! TF.FileFunction,Copper,L2,Bot,Signal*
%FSLAX46Y46*%
G04 Gerber Fmt 4.6, Leading zero omitted, Abs format (unit mm)*
G04 Created by KiCad (PCBNEW 4.0.7+dfsg1-1) date Fri Oct 26 01:57:56 2018*
%MOMM*%
%LPD*%
G01*
G04 APERTURE LIST*
%ADD10C,0.150000*%
%ADD11C,1.500000*%
%ADD12R,1.700000X1.700000*%
%ADD13O,1.700000X1.700000*%
%ADD14C,2.000000*%
%ADD15C,0.600000*%
%ADD16C,0.250000*%
G04 APERTURE END LIST*
D10*
D11*
X141732000Y-100330000D03*
X139192000Y-100330000D03*
X136652000Y-100330000D03*
X134112000Y-100330000D03*
X131572000Y-100330000D03*
X129032000Y-100330000D03*
X126492000Y-100330000D03*
X123952000Y-100330000D03*
X121412000Y-100330000D03*
X118872000Y-100330000D03*
X116332000Y-100330000D03*
X113792000Y-100330000D03*
X111252000Y-100330000D03*
X108712000Y-100330000D03*
X106172000Y-100330000D03*
X103632000Y-100330000D03*
X101092000Y-100330000D03*
X98552000Y-100330000D03*
X96012000Y-100330000D03*
X93472000Y-100330000D03*
X141732000Y-97790000D03*
X139192000Y-97790000D03*
X136652000Y-97790000D03*
X134112000Y-97790000D03*
X131572000Y-97790000D03*
X129032000Y-97790000D03*
X126492000Y-97790000D03*
X123952000Y-97790000D03*
X121412000Y-97790000D03*
X118872000Y-97790000D03*
X116332000Y-97790000D03*
X113792000Y-97790000D03*
X111252000Y-97790000D03*
X108712000Y-97790000D03*
X106172000Y-97790000D03*
X103632000Y-97790000D03*
X101092000Y-97790000D03*
X98552000Y-97790000D03*
X96012000Y-97790000D03*
X93472000Y-97790000D03*
X141732000Y-95250000D03*
X139192000Y-95250000D03*
X136652000Y-95250000D03*
X134112000Y-95250000D03*
X131572000Y-95250000D03*
X129032000Y-95250000D03*
X126492000Y-95250000D03*
X123952000Y-95250000D03*
X121412000Y-95250000D03*
X118872000Y-95250000D03*
X116332000Y-95250000D03*
X113792000Y-95250000D03*
X111252000Y-95250000D03*
X108712000Y-95250000D03*
X106172000Y-95250000D03*
X103632000Y-95250000D03*
X101092000Y-95250000D03*
X98552000Y-95250000D03*
X96012000Y-95250000D03*
X93472000Y-95250000D03*
X141732000Y-92710000D03*
X139192000Y-92710000D03*
X136652000Y-92710000D03*
X134112000Y-92710000D03*
X131572000Y-92710000D03*
X129032000Y-92710000D03*
X126492000Y-92710000D03*
X123952000Y-92710000D03*
X121412000Y-92710000D03*
X118872000Y-92710000D03*
X116332000Y-92710000D03*
X113792000Y-92710000D03*
X111252000Y-92710000D03*
X108712000Y-92710000D03*
X106172000Y-92710000D03*
X103632000Y-92710000D03*
X101092000Y-92710000D03*
X98552000Y-92710000D03*
X96012000Y-92710000D03*
X93472000Y-92710000D03*
X141732000Y-90170000D03*
X139192000Y-90170000D03*
X136652000Y-90170000D03*
X134112000Y-90170000D03*
X131572000Y-90170000D03*
X129032000Y-90170000D03*
X126492000Y-90170000D03*
X123952000Y-90170000D03*
X121412000Y-90170000D03*
X118872000Y-90170000D03*
X116332000Y-90170000D03*
X113792000Y-90170000D03*
X111252000Y-90170000D03*
X108712000Y-90170000D03*
X106172000Y-90170000D03*
X103632000Y-90170000D03*
X101092000Y-90170000D03*
X98552000Y-90170000D03*
X96012000Y-90170000D03*
X93472000Y-90170000D03*
X141732000Y-87630000D03*
X139192000Y-87630000D03*
X136652000Y-87630000D03*
X134112000Y-87630000D03*
X131572000Y-87630000D03*
X129032000Y-87630000D03*
X126492000Y-87630000D03*
X123952000Y-87630000D03*
X121412000Y-87630000D03*
X118872000Y-87630000D03*
X116332000Y-87630000D03*
X113792000Y-87630000D03*
X111252000Y-87630000D03*
X108712000Y-87630000D03*
X106172000Y-87630000D03*
X103632000Y-87630000D03*
X101092000Y-87630000D03*
X98552000Y-87630000D03*
X96012000Y-87630000D03*
X93472000Y-87630000D03*
X141732000Y-85090000D03*
X139192000Y-85090000D03*
X136652000Y-85090000D03*
X134112000Y-85090000D03*
X131572000Y-85090000D03*
X129032000Y-85090000D03*
X126492000Y-85090000D03*
X123952000Y-85090000D03*
X121412000Y-85090000D03*
X118872000Y-85090000D03*
X116332000Y-85090000D03*
X113792000Y-85090000D03*
X111252000Y-85090000D03*
X108712000Y-85090000D03*
X106172000Y-85090000D03*
X103632000Y-85090000D03*
X101092000Y-85090000D03*
X98552000Y-85090000D03*
X96012000Y-85090000D03*
X93472000Y-85090000D03*
X141732000Y-82550000D03*
X139192000Y-82550000D03*
X136652000Y-82550000D03*
X134112000Y-82550000D03*
X131572000Y-82550000D03*
X129032000Y-82550000D03*
X126492000Y-82550000D03*
X123952000Y-82550000D03*
X121412000Y-82550000D03*
X118872000Y-82550000D03*
X116332000Y-82550000D03*
X113792000Y-82550000D03*
X111252000Y-82550000D03*
X108712000Y-82550000D03*
X106172000Y-82550000D03*
X103632000Y-82550000D03*
X101092000Y-82550000D03*
X98552000Y-82550000D03*
X96012000Y-82550000D03*
X93472000Y-82550000D03*
X141732000Y-80010000D03*
X139192000Y-80010000D03*
X136652000Y-80010000D03*
X134112000Y-80010000D03*
X131572000Y-80010000D03*
X129032000Y-80010000D03*
X126492000Y-80010000D03*
X123952000Y-80010000D03*
X121412000Y-80010000D03*
X118872000Y-80010000D03*
X116332000Y-80010000D03*
X113792000Y-80010000D03*
X111252000Y-80010000D03*
X108712000Y-80010000D03*
X106172000Y-80010000D03*
X103632000Y-80010000D03*
X101092000Y-80010000D03*
X98552000Y-80010000D03*
X96012000Y-80010000D03*
X93472000Y-80010000D03*
X141732000Y-77470000D03*
X139192000Y-77470000D03*
X136652000Y-77470000D03*
X134112000Y-77470000D03*
X131572000Y-77470000D03*
X129032000Y-77470000D03*
X126492000Y-77470000D03*
X123952000Y-77470000D03*
X121412000Y-77470000D03*
X118872000Y-77470000D03*
X116332000Y-77470000D03*
X113792000Y-77470000D03*
X111252000Y-77470000D03*
X108712000Y-77470000D03*
X106172000Y-77470000D03*
X103632000Y-77470000D03*
X101092000Y-77470000D03*
X98552000Y-77470000D03*
X96012000Y-77470000D03*
X93472000Y-77470000D03*
X141732000Y-74930000D03*
X139192000Y-74930000D03*
X136652000Y-74930000D03*
X134112000Y-74930000D03*
X131572000Y-74930000D03*
X129032000Y-74930000D03*
X126492000Y-74930000D03*
X123952000Y-74930000D03*
X121412000Y-74930000D03*
X118872000Y-74930000D03*
X116332000Y-74930000D03*
X113792000Y-74930000D03*
X111252000Y-74930000D03*
X108712000Y-74930000D03*
X106172000Y-74930000D03*
X103632000Y-74930000D03*
X101092000Y-74930000D03*
X98552000Y-74930000D03*
X96012000Y-74930000D03*
X93472000Y-74930000D03*
X141732000Y-72390000D03*
X139192000Y-72390000D03*
X136652000Y-72390000D03*
X134112000Y-72390000D03*
X131572000Y-72390000D03*
X129032000Y-72390000D03*
X126492000Y-72390000D03*
X123952000Y-72390000D03*
X121412000Y-72390000D03*
X118872000Y-72390000D03*
X116332000Y-72390000D03*
X113792000Y-72390000D03*
X111252000Y-72390000D03*
X108712000Y-72390000D03*
X106172000Y-72390000D03*
X103632000Y-72390000D03*
X101092000Y-72390000D03*
X98552000Y-72390000D03*
X96012000Y-72390000D03*
X93472000Y-72390000D03*
X141732000Y-69850000D03*
X139192000Y-69850000D03*
X136652000Y-69850000D03*
X134112000Y-69850000D03*
X131572000Y-69850000D03*
X129032000Y-69850000D03*
X126492000Y-69850000D03*
X123952000Y-69850000D03*
X121412000Y-69850000D03*
X118872000Y-69850000D03*
X116332000Y-69850000D03*
X113792000Y-69850000D03*
X111252000Y-69850000D03*
X108712000Y-69850000D03*
X106172000Y-69850000D03*
X103632000Y-69850000D03*
X101092000Y-69850000D03*
X98552000Y-69850000D03*
X96012000Y-69850000D03*
X93472000Y-69850000D03*
X141732000Y-67310000D03*
X139192000Y-67310000D03*
X136652000Y-67310000D03*
X134112000Y-67310000D03*
X131572000Y-67310000D03*
X129032000Y-67310000D03*
X126492000Y-67310000D03*
X123952000Y-67310000D03*
X121412000Y-67310000D03*
X118872000Y-67310000D03*
X116332000Y-67310000D03*
X113792000Y-67310000D03*
X111252000Y-67310000D03*
X108712000Y-67310000D03*
X106172000Y-67310000D03*
X103632000Y-67310000D03*
X101092000Y-67310000D03*
X98552000Y-67310000D03*
X96012000Y-67310000D03*
X93472000Y-67310000D03*
X141732000Y-64770000D03*
X139192000Y-64770000D03*
X136652000Y-64770000D03*
X134112000Y-64770000D03*
X131572000Y-64770000D03*
X129032000Y-64770000D03*
X126492000Y-64770000D03*
X123952000Y-64770000D03*
X121412000Y-64770000D03*
X118872000Y-64770000D03*
X116332000Y-64770000D03*
X113792000Y-64770000D03*
X111252000Y-64770000D03*
X108712000Y-64770000D03*
X106172000Y-64770000D03*
X103632000Y-64770000D03*
X101092000Y-64770000D03*
X98552000Y-64770000D03*
X96012000Y-64770000D03*
X93472000Y-64770000D03*
X141732000Y-62230000D03*
X139192000Y-62230000D03*
X136652000Y-62230000D03*
X134112000Y-62230000D03*
X131572000Y-62230000D03*
X129032000Y-62230000D03*
X126492000Y-62230000D03*
X123952000Y-62230000D03*
X121412000Y-62230000D03*
X118872000Y-62230000D03*
X116332000Y-62230000D03*
X113792000Y-62230000D03*
X111252000Y-62230000D03*
X108712000Y-62230000D03*
X106172000Y-62230000D03*
X103632000Y-62230000D03*
X101092000Y-62230000D03*
X98552000Y-62230000D03*
X96012000Y-62230000D03*
X93472000Y-62230000D03*
X141732000Y-59690000D03*
X139192000Y-59690000D03*
X136652000Y-59690000D03*
X134112000Y-59690000D03*
X131572000Y-59690000D03*
X129032000Y-59690000D03*
X126492000Y-59690000D03*
X123952000Y-59690000D03*
X121412000Y-59690000D03*
X118872000Y-59690000D03*
X116332000Y-59690000D03*
X113792000Y-59690000D03*
X111252000Y-59690000D03*
X108712000Y-59690000D03*
X106172000Y-59690000D03*
X103632000Y-59690000D03*
X101092000Y-59690000D03*
X98552000Y-59690000D03*
X96012000Y-59690000D03*
X93472000Y-59690000D03*
X141732000Y-57150000D03*
X139192000Y-57150000D03*
X136652000Y-57150000D03*
X134112000Y-57150000D03*
X131572000Y-57150000D03*
X129032000Y-57150000D03*
X126492000Y-57150000D03*
X123952000Y-57150000D03*
X121412000Y-57150000D03*
X118872000Y-57150000D03*
X116332000Y-57150000D03*
X113792000Y-57150000D03*
X111252000Y-57150000D03*
X108712000Y-57150000D03*
X106172000Y-57150000D03*
X103632000Y-57150000D03*
X101092000Y-57150000D03*
X98552000Y-57150000D03*
X96012000Y-57150000D03*
X93472000Y-57150000D03*
X141732000Y-54610000D03*
X139192000Y-54610000D03*
X136652000Y-54610000D03*
X134112000Y-54610000D03*
X131572000Y-54610000D03*
X129032000Y-54610000D03*
X126492000Y-54610000D03*
X123952000Y-54610000D03*
X121412000Y-54610000D03*
X118872000Y-54610000D03*
X116332000Y-54610000D03*
X113792000Y-54610000D03*
X111252000Y-54610000D03*
X108712000Y-54610000D03*
X106172000Y-54610000D03*
X103632000Y-54610000D03*
X101092000Y-54610000D03*
X98552000Y-54610000D03*
X96012000Y-54610000D03*
X93472000Y-54610000D03*
X141732000Y-52070000D03*
X139192000Y-52070000D03*
X136652000Y-52070000D03*
X134112000Y-52070000D03*
X131572000Y-52070000D03*
X129032000Y-52070000D03*
X126492000Y-52070000D03*
X123952000Y-52070000D03*
X121412000Y-52070000D03*
X118872000Y-52070000D03*
X116332000Y-52070000D03*
X113792000Y-52070000D03*
X111252000Y-52070000D03*
X108712000Y-52070000D03*
X106172000Y-52070000D03*
X103632000Y-52070000D03*
X101092000Y-52070000D03*
X98552000Y-52070000D03*
X96012000Y-52070000D03*
D12*
X98000000Y-105000000D03*
D13*
X100540000Y-105000000D03*
X103080000Y-105000000D03*
X105620000Y-105000000D03*
X108160000Y-105000000D03*
X110700000Y-105000000D03*
D12*
X114000000Y-105000000D03*
D13*
X116540000Y-105000000D03*
X119080000Y-105000000D03*
X121620000Y-105000000D03*
X124160000Y-105000000D03*
X126700000Y-105000000D03*
X129240000Y-105000000D03*
D14*
X75620000Y-118110000D03*
X71120000Y-118110000D03*
X75620000Y-111610000D03*
X71120000Y-111610000D03*
X75620000Y-132080000D03*
X71120000Y-132080000D03*
X75620000Y-125580000D03*
X71120000Y-125580000D03*
X75620000Y-146050000D03*
X71120000Y-146050000D03*
X75620000Y-139550000D03*
X71120000Y-139550000D03*
X68580000Y-81970000D03*
X68580000Y-77470000D03*
X75080000Y-81970000D03*
X75080000Y-77470000D03*
X76200000Y-74350000D03*
X76200000Y-69850000D03*
X82700000Y-74350000D03*
X82700000Y-69850000D03*
X76200000Y-89590000D03*
X76200000Y-85090000D03*
X82700000Y-89590000D03*
X82700000Y-85090000D03*
X83240000Y-118110000D03*
X78740000Y-118110000D03*
X83240000Y-111610000D03*
X78740000Y-111610000D03*
X83240000Y-132080000D03*
X78740000Y-132080000D03*
X83240000Y-125580000D03*
X78740000Y-125580000D03*
X83240000Y-146050000D03*
X78740000Y-146050000D03*
X83240000Y-139550000D03*
X78740000Y-139550000D03*
X83820000Y-81970000D03*
X83820000Y-77470000D03*
X90320000Y-81970000D03*
X90320000Y-77470000D03*
X90860000Y-118110000D03*
X86360000Y-118110000D03*
X90860000Y-111610000D03*
X86360000Y-111610000D03*
X90860000Y-132080000D03*
X86360000Y-132080000D03*
X90860000Y-125580000D03*
X86360000Y-125580000D03*
X90860000Y-146050000D03*
X86360000Y-146050000D03*
X90860000Y-139550000D03*
X86360000Y-139550000D03*
X98480000Y-118110000D03*
X93980000Y-118110000D03*
X98480000Y-111610000D03*
X93980000Y-111610000D03*
X98480000Y-132080000D03*
X93980000Y-132080000D03*
X98480000Y-125580000D03*
X93980000Y-125580000D03*
X98480000Y-146050000D03*
X93980000Y-146050000D03*
X98480000Y-139550000D03*
X93980000Y-139550000D03*
X106100000Y-118110000D03*
X101600000Y-118110000D03*
X106100000Y-111610000D03*
X101600000Y-111610000D03*
X106100000Y-132080000D03*
X101600000Y-132080000D03*
X106100000Y-125580000D03*
X101600000Y-125580000D03*
X106100000Y-146050000D03*
X101600000Y-146050000D03*
X106100000Y-139550000D03*
X101600000Y-139550000D03*
X113720000Y-118110000D03*
X109220000Y-118110000D03*
X113720000Y-111610000D03*
X109220000Y-111610000D03*
X113720000Y-132080000D03*
X109220000Y-132080000D03*
X113720000Y-125580000D03*
X109220000Y-125580000D03*
X113720000Y-146050000D03*
X109220000Y-146050000D03*
X113720000Y-139550000D03*
X109220000Y-139550000D03*
X154360000Y-82550000D03*
X149860000Y-82550000D03*
X154360000Y-76050000D03*
X149860000Y-76050000D03*
X121340000Y-118110000D03*
X116840000Y-118110000D03*
X121340000Y-111610000D03*
X116840000Y-111610000D03*
X121340000Y-132080000D03*
X116840000Y-132080000D03*
X121340000Y-125580000D03*
X116840000Y-125580000D03*
X121340000Y-146050000D03*
X116840000Y-146050000D03*
X121340000Y-139550000D03*
X116840000Y-139550000D03*
X161980000Y-77470000D03*
X157480000Y-77470000D03*
X161980000Y-70970000D03*
X157480000Y-70970000D03*
X128960000Y-118110000D03*
X124460000Y-118110000D03*
X128960000Y-111610000D03*
X124460000Y-111610000D03*
X128960000Y-132080000D03*
X124460000Y-132080000D03*
X128960000Y-125580000D03*
X124460000Y-125580000D03*
X128960000Y-146050000D03*
X124460000Y-146050000D03*
X128960000Y-139550000D03*
X124460000Y-139550000D03*
X136580000Y-118110000D03*
X132080000Y-118110000D03*
X136580000Y-111610000D03*
X132080000Y-111610000D03*
X136580000Y-132080000D03*
X132080000Y-132080000D03*
X136580000Y-125580000D03*
X132080000Y-125580000D03*
X136580000Y-146050000D03*
X132080000Y-146050000D03*
X136580000Y-139550000D03*
X132080000Y-139550000D03*
X144200000Y-118110000D03*
X139700000Y-118110000D03*
X144200000Y-111610000D03*
X139700000Y-111610000D03*
X144200000Y-132080000D03*
X139700000Y-132080000D03*
X144200000Y-125580000D03*
X139700000Y-125580000D03*
X144200000Y-146050000D03*
X139700000Y-146050000D03*
X144200000Y-139550000D03*
X139700000Y-139550000D03*
X151820000Y-118110000D03*
X147320000Y-118110000D03*
X151820000Y-111610000D03*
X147320000Y-111610000D03*
X151820000Y-132080000D03*
X147320000Y-132080000D03*
X151820000Y-125580000D03*
X147320000Y-125580000D03*
X151820000Y-146050000D03*
X147320000Y-146050000D03*
X151820000Y-139550000D03*
X147320000Y-139550000D03*
X159440000Y-118110000D03*
X154940000Y-118110000D03*
X159440000Y-111610000D03*
X154940000Y-111610000D03*
X159440000Y-132080000D03*
X154940000Y-132080000D03*
X159440000Y-125580000D03*
X154940000Y-125580000D03*
X159440000Y-146050000D03*
X154940000Y-146050000D03*
X159440000Y-139550000D03*
X154940000Y-139550000D03*
D11*
X93472000Y-52070000D03*
D15*
X110998000Y-113030000D03*
X126492000Y-110490000D03*
X119380000Y-127000000D03*
X119380000Y-120396000D03*
X119380000Y-110490000D03*
X87376000Y-100838000D03*
D16*
X115570000Y-107950000D02*
X116540000Y-105000000D01*
X112522000Y-107950000D02*
X115570000Y-107950000D01*
X112014000Y-108458000D02*
X112522000Y-107950000D01*
X112014000Y-112014000D02*
X112014000Y-108458000D01*
X110998000Y-113030000D02*
X112014000Y-112014000D01*
X126492000Y-110490000D02*
X124206000Y-108204000D01*
X124206000Y-108204000D02*
X124206000Y-105046000D01*
X124206000Y-105046000D02*
X124160000Y-105000000D01*
X124160000Y-105762000D02*
X124160000Y-105000000D01*
X121666000Y-108204000D02*
X121666000Y-105046000D01*
X121666000Y-105046000D02*
X121620000Y-105000000D01*
X119380000Y-127000000D02*
X119380000Y-120396000D01*
X119380000Y-110490000D02*
X121666000Y-108204000D01*
X71120000Y-80010000D02*
X68580000Y-77470000D01*
X71120000Y-92710000D02*
X71120000Y-80010000D01*
X83058000Y-103378000D02*
X71120000Y-92710000D01*
X95250000Y-103378000D02*
X83058000Y-103378000D01*
X97393998Y-104410000D02*
X95250000Y-103378000D01*
X97790000Y-104410000D02*
X97393998Y-104410000D01*
X97790000Y-104410000D02*
X97790000Y-105791998D01*
X75288000Y-107442000D02*
X71120000Y-111610000D01*
X97139998Y-107442000D02*
X75288000Y-107442000D01*
X97790000Y-105791998D02*
X97139998Y-107442000D01*
X116840000Y-118110000D02*
X116840000Y-116160000D01*
X75510000Y-116000000D02*
X71120000Y-111610000D01*
X116680000Y-116000000D02*
X75510000Y-116000000D01*
X116840000Y-116160000D02*
X116680000Y-116000000D01*
X116840000Y-118110000D02*
X116840000Y-125580000D01*
X71120000Y-118110000D02*
X71120000Y-125580000D01*
X116840000Y-139550000D02*
X116840000Y-132080000D01*
X71120000Y-132080000D02*
X71120000Y-139550000D01*
X100540000Y-105000000D02*
X100584000Y-106172000D01*
X81892000Y-108458000D02*
X78740000Y-111610000D01*
X98298000Y-108458000D02*
X81892000Y-108458000D01*
X100584000Y-106172000D02*
X98298000Y-108458000D01*
X100330000Y-104410000D02*
X100330000Y-104521998D01*
X78740000Y-111506000D02*
X78740000Y-111610000D01*
X100330000Y-104410000D02*
X98806000Y-102616000D01*
X73152000Y-72898000D02*
X76200000Y-69850000D01*
X73152000Y-93218000D02*
X73152000Y-72898000D01*
X83820000Y-102616000D02*
X73152000Y-93218000D01*
X98806000Y-102616000D02*
X83820000Y-102616000D01*
X78740000Y-111610000D02*
X79110000Y-111610000D01*
X79110000Y-111610000D02*
X82500000Y-115000000D01*
X121350000Y-115000000D02*
X124460000Y-118110000D01*
X82500000Y-115000000D02*
X121350000Y-115000000D01*
X124460000Y-118110000D02*
X124460000Y-125580000D01*
X78740000Y-118110000D02*
X78740000Y-125580000D01*
X124460000Y-132080000D02*
X124460000Y-139550000D01*
X78740000Y-139550000D02*
X78740000Y-132080000D01*
X103080000Y-105000000D02*
X103080000Y-105073998D01*
X103080000Y-105073998D02*
X100076000Y-109220000D01*
X100076000Y-109220000D02*
X88750000Y-109220000D01*
X88750000Y-109220000D02*
X86360000Y-111610000D01*
X102870000Y-104410000D02*
X102854998Y-104410000D01*
X102870000Y-104410000D02*
X102870000Y-105156000D01*
X100076000Y-101854000D02*
X84328000Y-101854000D01*
X84328000Y-101854000D02*
X80010000Y-97536000D01*
X80010000Y-97536000D02*
X80010000Y-87780000D01*
X80010000Y-87780000D02*
X82700000Y-85090000D01*
X102870000Y-105156000D02*
X100076000Y-101854000D01*
X132080000Y-118110000D02*
X132080000Y-118080000D01*
X132080000Y-118080000D02*
X128000000Y-114000000D01*
X88750000Y-114000000D02*
X86360000Y-111610000D01*
X128000000Y-114000000D02*
X88750000Y-114000000D01*
X132080000Y-118110000D02*
X132080000Y-125580000D01*
X86360000Y-118110000D02*
X86360000Y-125580000D01*
X132080000Y-132080000D02*
X132080000Y-139550000D01*
X86360000Y-132080000D02*
X86360000Y-139550000D01*
X90320000Y-77470000D02*
X87630000Y-80160000D01*
X87376000Y-100838000D02*
X87630000Y-80160000D01*
X105620000Y-105000000D02*
X105582000Y-105000000D01*
X105582000Y-105000000D02*
X101600000Y-109982000D01*
X101600000Y-109982000D02*
X95608000Y-109982000D01*
X95608000Y-109982000D02*
X93980000Y-111610000D01*
X139700000Y-132080000D02*
X139700000Y-131700000D01*
X139700000Y-131700000D02*
X138000000Y-130000000D01*
X98400000Y-130000000D02*
X93980000Y-125580000D01*
X138000000Y-130000000D02*
X98400000Y-130000000D01*
X94000000Y-111590000D02*
X93980000Y-111610000D01*
X139700000Y-118110000D02*
X139700000Y-125580000D01*
X93980000Y-118110000D02*
X93980000Y-125580000D01*
X139700000Y-132080000D02*
X139700000Y-139550000D01*
X93980000Y-139550000D02*
X93980000Y-132080000D01*
X108160000Y-105000000D02*
X108160000Y-105470000D01*
X108160000Y-105470000D02*
X103020000Y-111610000D01*
X103020000Y-111610000D02*
X101600000Y-111610000D01*
X147828000Y-98806000D02*
X143764000Y-101854000D01*
X147828000Y-98806000D02*
X147828000Y-88646000D01*
X147828000Y-88646000D02*
X149860000Y-86614000D01*
X149860000Y-82550000D02*
X149860000Y-86614000D01*
X108458000Y-101854000D02*
X107950000Y-104648000D01*
X143764000Y-101854000D02*
X108458000Y-101854000D01*
X107950000Y-104648000D02*
X107950000Y-104410000D01*
X147320000Y-132080000D02*
X147320000Y-131820000D01*
X147320000Y-131820000D02*
X144500000Y-129000000D01*
X144500000Y-129000000D02*
X105020000Y-129000000D01*
X105020000Y-129000000D02*
X101600000Y-125580000D01*
X107950000Y-104410000D02*
X107800000Y-104410000D01*
X147320000Y-118110000D02*
X147320000Y-125580000D01*
X101600000Y-118110000D02*
X101600000Y-125580000D01*
X147320000Y-132080000D02*
X147320000Y-139550000D01*
X101600000Y-139550000D02*
X101600000Y-132080000D01*
X110490000Y-104410000D02*
X110490000Y-105044002D01*
X112776000Y-102616000D02*
X145796000Y-102616000D01*
X145796000Y-102616000D02*
X150368000Y-99060000D01*
X150368000Y-99060000D02*
X150368000Y-90932000D01*
X150368000Y-90932000D02*
X157480000Y-83820000D01*
X157480000Y-83820000D02*
X157480000Y-77470000D01*
X110490000Y-105044002D02*
X112776000Y-102616000D01*
X110490000Y-104410000D02*
X110490000Y-110340000D01*
X110490000Y-110340000D02*
X109220000Y-111610000D01*
X110490000Y-104410000D02*
X110505002Y-104410000D01*
X109220000Y-125580000D02*
X109220000Y-125720000D01*
X109220000Y-125720000D02*
X111500000Y-128000000D01*
X111500000Y-128000000D02*
X150860000Y-128000000D01*
X150860000Y-128000000D02*
X154940000Y-132080000D01*
X154940000Y-118110000D02*
X154940000Y-125580000D01*
X109220000Y-118110000D02*
X109220000Y-125580000D01*
X154940000Y-139550000D02*
X154940000Y-132080000D01*
X109220000Y-132080000D02*
X109220000Y-139550000D01*
M02*
